Desafio11
…
$ workclass        <chr> "State-gov", "Self-emp-not-inc", "Private", "Private"…
$ fnlwgt           <int> 77516, 83311, 215646, 234721, 338409, 284582, 160187,…
$ education        <chr> "Bachelors", "Bachelors", "HS-grad", "11th", "Bachelo…
$ `education-num`  <int> 13, 13, 9, 7, 13, 14, 5, 9, 14, 13, 10, 13, 13, 12, 1…
$ `marital-status` <chr> "Never-married", "Married-civ-spouse", "Divorced", "M…
$ occupation       <chr> "Adm-clerical", "Exec-managerial", "Handlers-cleaners…
$ relationship     <chr> "Not-in-family", "Husband", "Not-in-family", "Husband…
$ race             <chr> "White", "White", "White", "Black", "Black", "White",…
$ sex              <chr> "Male", "Male", "Male", "Male", "Female", "Female", "…
$ `capital-gain`   <int> 2174, 0, 0, 0, 0, 0, 0, 0, 14084, 5178, 0, 0, 0, 0, 0…
$ `capital-loss`   <int> 0, 0, 0, 0, 0, 0, 0, 0, 0, 0, 0, 0, 0, 0, 0, 0, 0, 0,…
$ `hours-per-week` <int> 40, 13, 40, 40, 40, 40, 16, 45, 50, 40, 80, 40, 30, 5…
$ `native-country` <chr> "United-States", "United-States", "United-States", "U…
$ income           <chr> "<=50K", "<=50K", "<=50K", "<=50K", "<=50K", "<=50K",…
# A tibble: 32,561 × 15
     age workclass  fnlwgt education `education-num` `marital-status` occupation
   <int> <chr>       <int> <chr>               <int> <chr>            <chr>     
 1    39 State-gov   77516 Bachelors              13 Never-married    Adm-cleri…
 2    50 Self-emp-…  83311 Bachelors              13 Married-civ-spo… Exec-mana…
 3    38 Private    215646 HS-grad                 9 Divorced         Handlers-…
 4    53 Private    234721 11th                    7 Married-civ-spo… Handlers-…
 5    28 Private    338409 Bachelors              13 Married-civ-spo… Prof-spec…
 6    37 Private    284582 Masters                14 Married-civ-spo… Exec-mana…
 7    49 Private    160187 9th                     5 Married-spouse-… Other-ser…
 8    52 Self-emp-… 209642 HS-grad                 9 Married-civ-spo… Exec-mana…
 9    31 Private     45781 Masters                14 Never-married    Prof-spec…
10    42 Private    159449 Bachelors              13 Married-civ-spo… Exec-mana…
# ℹ 32,551 more rows
# ℹ 8 more variables: relationship <chr>, race <chr>, sex <chr>,
#   `capital-gain` <int>, `capital-loss` <int>, `hours-per-week` <int>,
#   `native-country` <chr>, income <chr>
…
$ workclass        <chr> "State-gov", "Self-emp-not-inc", "Private", "Private"…
$ fnlwgt           <int> 77516, 83311, 215646, 234721, 338409, 284582, 160187,…
$ education        <chr> "Bachelors", "Bachelors", "HS-grad", "11th", "Bachelo…
$ `education-num`  <int> 13, 13, 9, 7, 13, 14, 5, 9, 14, 13, 10, 13, 13, 12, 1…
$ `marital-status` <chr> "Never-married", "Married-civ-spouse", "Divorced", "M…
$ occupation       <chr> "Adm-clerical", "Exec-managerial", "Handlers-cleaners…
$ relationship     <chr> "Not-in-family", "Husband", "Not-in-family", "Husband…
$ race             <chr> "White", "White", "White", "Black", "Black", "White",…
$ sex              <chr> "Male", "Male", "Male", "Male", "Female", "Female", "…
$ `capital-gain`   <int> 2174, 0, 0, 0, 0, 0, 0, 0, 14084, 5178, 0, 0, 0, 0, 0…
$ `capital-loss`   <int> 0, 0, 0, 0, 0, 0, 0, 0, 0, 0, 0, 0, 0, 0, 0, 0, 0, 0,…
$ `hours-per-week` <int> 40, 13, 40, 40, 40, 40, 16, 45, 50, 40, 80, 40, 30, 5…
$ `native-country` <chr> "United-States", "United-States", "United-States", "U…
$ income           <chr> "<=50K", "<=50K", "<=50K", "<=50K", "<=50K", "<=50K",…
# A tibble: 32,561 × 15
     age workclass  fnlwgt education `education-num` `marital-status` occupation
   <int> <chr>       <int> <chr>               <int> <chr>            <chr>     
 1    39 State-gov   77516 Bachelors              13 Never-married    Adm-cleri…
 2    50 Self-emp-…  83311 Bachelors              13 Married-civ-spo… Exec-mana…
 3    38 Private    215646 HS-grad                 9 Divorced         Handlers-…
 4    53 Private    234721 11th                    7 Married-civ-spo… Handlers-…
 5    28 Private    338409 Bachelors              13 Married-civ-spo… Prof-spec…
 6    37 Private    284582 Masters                14 Married-civ-spo… Exec-mana…
 7    49 Private    160187 9th                     5 Married-spouse-… Other-ser…
 8    52 Self-emp-… 209642 HS-grad                 9 Married-civ-spo… Exec-mana…
 9    31 Private     45781 Masters                14 Never-married    Prof-spec…
10    42 Private    159449 Bachelors              13 Married-civ-spo… Exec-mana…
# ℹ 32,551 more rows
# ℹ 8 more variables: relationship <chr>, race <chr>, sex <chr>,
#   `capital-gain` <int>, `capital-loss` <int>, `hours-per-week` <int>,
#   `native-country` <chr>, income <chr>
…
#Contar quantas pessoas recebem acima/abaixo de $50.000

print(contagem_renda)

# A tibble: 2 × 2
  income total_pessoas
  <chr>          <int>
1 <=50K          24720
2 >50K            7841

Crie um objeto chamado renda_longo, no qual você transforma as colunas capital-gain e capital-loss (formato wide) para formato longo. Os valores destas variáveis devem ser armazenados numa nova coluna chamada Valor e os tipos de valores (gain e loss) devem ser armazenados numa coluna chamada tipo.

renda_longo

# A tibble: 65,122 × 15
     age workclass  fnlwgt education `education-num` `marital-status` occupation
   <int> <chr>       <int> <chr>               <int> <chr>            <chr>     
 1    39 State-gov   77516 Bachelors              13 Never-married    Adm-cleri…
 2    39 State-gov   77516 Bachelors              13 Never-married    Adm-cleri…
 3    50 Self-emp-…  83311 Bachelors              13 Married-civ-spo… Exec-mana…
 4    50 Self-emp-…  83311 Bachelors              13 Married-civ-spo… Exec-mana…
 5    38 Private    215646 HS-grad                 9 Divorced         Handlers-…
 6    38 Private    215646 HS-grad                 9 Divorced         Handlers-…
 7    53 Private    234721 11th                    7 Married-civ-spo… Handlers-…
 8    53 Private    234721 11th                    7 Married-civ-spo… Handlers-…
 9    28 Private    338409 Bachelors              13 Married-civ-spo… Prof-spec…
10    28 Private    338409 Bachelors              13 Married-civ-spo… Prof-spec…
# ℹ 65,112 more rows
# ℹ 8 more variables: relationship <chr>, race <chr>, sex <chr>,
#   `hours-per-week` <int>, `native-country` <chr>, income <chr>, tipo <chr>,
#   Valor <int>
…
